…
``` r
nhanes = left_join(demo,accel, by = "seqn")
```

Then, exclude participants less than 21 years of age, and those with
missing demographic data.

``` r
nhanes = filter(nhanes, age >= 21)
nhanes = filter(nhanes, !is.na(sex), !is.na(age), !is.na(bmi), !is.na(education))
nhanes
```

    ## # A tibble: 228 × 1,445
    ##     seqn sex      age   bmi education     min1   min2   min3  min4   min5   min6
    ##    <dbl> <fct>  <dbl> <dbl> <fct>        <dbl>  <dbl>  <dbl> <dbl>  <dbl>  <dbl>
    ##  1 62161 male      22  23.3 High school… 1.11  3.12   1.47   0.938 1.60   0.145 
    ##  2 62164 female    44  23.2 More than h… 1.92  1.67   2.38   0.935 2.59   5.22  
    ##  3 62169 male      21  20.1 High school… 5.85  5.18   4.76   6.48  6.85   7.24  
    ##  4 62174 male      80  33.9 More than h… 5.42  3.48   3.72   3.81  6.85   4.45  
    ##  5 62177 male      51  20.1 High school… 6.14  8.06   9.99   6.60  4.57   2.78  
    ##  6 62178 male      80  28.5 High school… 0.167 0.429  0.131  1.20  0.0796 0.0487
    ##  7 62180 male      35  27.9 More than h… 0.039 0      0      0     0.369  0.265 
    ##  8 62184 male      26  22.1 High school… 1.55  2.81   3.86   4.76  6.10   7.61  
    ##  9 62189 female    30  22.4 More than h… 2.81  0.195  0.163  0     0.144  0.180 
    ## 10 62199 male      57  28   More than h… 0.031 0.0359 0.0387 0.079 0.109  0.262 
    ## # ℹ 218 more rows
    ## # ℹ 1,434 more variables: min7 <dbl>, min8 <dbl>, min9 <dbl>, min10 <dbl>,
    ## #   min11 <dbl>, min12 <dbl>, min13 <dbl>, min14 <dbl>, min15 <dbl>,
    ## #   min16 <dbl>, min17 <dbl>, min18 <dbl>, min19 <dbl>, min20 <dbl>,
    ## #   min21 <dbl>, min22 <dbl>, min23 <dbl>, min24 <dbl>, min25 <dbl>,
    ## #   min26 <dbl>, min27 <dbl>, min28 <dbl>, min29 <dbl>, min30 <dbl>,
    ## #   min31 <dbl>, min32 <dbl>, min33 <dbl>, min34 <dbl>, min35 <dbl>, …
…
